{
	"page": 1,
	"per_page": 6,
	"total": 12,
	"total_pages": 2,
	"data": [
		{
			"id": 1,
			"name": "cerulean",
			"year": 2001,
			"color": "#98B2D1",
			"pantone_value": "15-4020"
		},
		{
			"id": 2,
			"name": "tigerlily",
			"year": 2002,
			"color": "#E2583E",
			"pantone_value": "17-1456"
		}
	],
	"ad": {
		"company": "StatusCode Weekly",
		"url": "http://statuscode.org/",
		"text": "A weekly newsletter focusing on software development, infrastructure, the server, performance, and the stack end of things."
	}
}
